alphaSimHlpR
…
Initial field trials

Goal is to create some initial historical data to drive the first selections of parents and variety development entries.

initialTP<-runPhenoTrial(nReps=2,nLocs=2,nChecks=0,
                         entries = initialPop$founders[[1]],
                         SP = initialPop$SP[[1]],
                         errVars = 40,
                         trialName = "HistoricalData")
initialTP
#> # A tibble: 50 x 6
#>    id    mother father trialName         pheno errVar
#>    <chr> <chr>  <chr>  <chr>             <dbl>  <dbl>
#>  1 1     0      0      HistoricalData  11.6        10
#>  2 2     0      0      HistoricalData -10.3        10
#>  3 3     0      0      HistoricalData  -1.44       10
#>  4 4     0      0      HistoricalData   3.25       10
#>  5 5     0      0      HistoricalData -10.4        10
#>  6 6     0      0      HistoricalData -12.6        10
#>  7 7     0      0      HistoricalData  -2.62       10
#>  8 8     0      0      HistoricalData   0.0498     10
#>  9 9     0      0      HistoricalData   5.63       10
#> 10 10    0      0      HistoricalData  -0.708      10
#> # … with 40 more rows
…
